{
    "success": true,
    "data": [
        {
            "changes": {
                "fields": []
            },
            "severity": "medium",
            "tags": [],
            "_id": "69490d27c89c6fe63c3e9e9c",
            "event_type": "invoice.created",
            "source_service": "sales-service",
            "companyId": "2b51c838-8dc2-4c38-bbe1-fbeda67fae1f",
            "entityId": "33",
            "entityType": "invoice",
            "payload": {
                "saleId": 33,
                "status": "ISSUED",
                "traceId": "55b17b5d-a719-439e-9c35-fbf3faea5f8d",
                "companyId": "2b51c838-8dc2-4c38-bbe1-fbeda67fae1f",
                "createdAt": "2025-12-22T09:19:34.512Z",
                "invoiceId": 33,
                "totalAmount": 0,
                "invoiceNumber": "INV-1766395174492"
            },
            "metadata": {
                "id": "1766395175087",
                "source": "sales-service",
                "type": "invoice.created",
                "emittedAt": "2025-12-22T09:19:35.087Z"
            },
            "occurred_at": "2025-12-22T09:19:35.087Z",
            "__v": 0
        },
        {
            "changes": {
                "fields": []
            },
            "severity": "medium",
            "tags": [],
            "_id": "69490d27c89c6fe63c3e9e9a",
            "event_type": "sale.created",
            "source_service": "sales-service",
            "companyId": "2b51c838-8dc2-4c38-bbe1-fbeda67fae1f",
            "entityId": "33",
            "entityType": "sale",
            "payload": {
                "items": [
                    {
                        "total": 0,
                        "category": "Uncategorized",
                        "quantity": 1,
                        "costPrice": 0,
                        "productId": "6946892aefaa903f932bb07e",
                        "unitPrice": 0,
                        "productName": "Corrupti amet ut o"
                    }
                ],
                "isDebt": false,
                "saleId": 33,
                "shopId": "f2a03805-a11d-4466-a318-fbbf64f6ad66",
                "soldBy": "693bdc4da7711ed4e52ca5a1",
                "status": "initiated",
                "traceId": "79efc73c-d306-4166-8eff-90d1b60fc6ff",
                "companyId": "2b51c838-8dc2-4c38-bbe1-fbeda67fae1f",
                "createdAt": "2025-12-22T09:19:34.496Z",
                "totalAmount": 0,
                "paymentMethod": "cash",
                "paymentStatus": "pending",
                "hashedCustomerId": null
            },
            "metadata": {
                "id": "1766395175078",
                "source": "sales-service",
                "type": "sale.created",
                "emittedAt": "2025-12-22T09:19:35.078Z"
            },
            "occurred_at": "2025-12-22T09:19:35.078Z",
            "__v": 0
        },
        {
            "changes": {
                "fields": []
            },
            "severity": "medium",
            "tags": [],
            "_id": "694821062594c7f4a59e6dcb",
            "event_type": "inventory.stock.updated",
            "source_service": "inventory-service",
            "companyId": "2b51c838-8dc2-4c38-bbe1-fbeda67fae1f",
            "entityType": "inventory",
            "payload": {
                "productId": "694589a3abfc224022bb207e",
                "companyId": "2b51c838-8dc2-4c38-bbe1-fbeda67fae1f",
                "oldQuantity": 250,
                "newQuantity": 249
            },
            "metadata": {
                "id": "1766334726475",
                "source": "inventory-service",
                "type": "inventory.stock.updated",
                "emittedAt": "2025-12-21T16:32:06.475Z"
            },
            "occurred_at": "2025-12-21T16:32:06.475Z",
            "__v": 0
        },
        {
            "changes": {
                "fields": []
            },
            "severity": "medium",
            "tags": [],
            "_id": "694821062594c7f4a59e6dca",
            "event_type": "inventory.product.updated",
            "source_service": "inventory-service",
            "companyId": "2b51c838-8dc2-4c38-bbe1-fbeda67fae1f",
            "entityId": "694589a3abfc224022bb207e",
            "entityType": "inventory",
            "payload": {
                "seo": {
                    "metaTitle": "Nihil autem aliquip ",
                    "metaDescription": "",
                    "keywords": []
                },
                "sales": {
                    "totalSold": 0,
                    "revenue": 0
                },
                "_id": "694589a3abfc224022bb207e",
                "companyId": "2b51c838-8dc2-4c38-bbe1-fbeda67fae1f",
                "shopId": "239be384-2469-4676-bdf5-3df331064c96",
                "name": "Corrupti amet ut o",
                "description": "Ullam veritatis volu",
                "brand": "Illum maiores deser",
                "manufacturer": "Quis qui omnis harum",
                "tags": [
                    "sed duis nam non mag"
                ],
                "supplierName": "Molestias voluptas f",
                "categoryId": "693bfba22796d0fa08565f12",
                "condition": "used",
                "availability": "out_of_stock",
                "status": "active",
                "visibility": "hidden",
                "featured": true,
                "isFeatured": true,
                "sortOrder": 57,
                "videoUrls": [],
                "pricingId": "694589a3abfc224022bb2084",
                "specsId": null,
                "costPrice": 20,
                "isDeleted": false,
                "deletedAt": null,
                "deletedBy": null,
                "images": [],
                "createdAt": "2025-12-19T17:21:39.956Z",
                "updatedAt": "2025-12-19T17:21:48.985Z",
                "slug": "corrupti-amet-ut-o",
                "sku": "CORRUPTIAM-DLJZB",
                "barcode": "CORRUPTIAM-DLJZB",
                "barcodePayload": "CORRUPTIAM-DLJZB",
                "qrPayload": "CORRUPTIAM-DLJZB",
                "scanId": "SCAN-MJD4ZAMC",
                "asin": "ASIN64899979",
                "upc": "223404307246",
                "__v": 0,
                "qrCode": "CORRUPTIAM-DLJZB",
                "barcodeCloudinaryId": "QrBar_Codes/694589a3abfc224022bb207e/ukdkab5zdbghtzfgm2ax",
                "barcodeUrl": "https://res.cloudinary.com/dnetsa2kl/image/upload/v1766164908/QrBar_Codes/694589a3abfc224022bb207e/ukdkab5zdbghtzfgm2ax.png",
                "qrCloudinaryId": "QrBar_Codes/694589a3abfc224022bb207e/dqxgtqaptu4xpdvizstg",
                "qrCodeUrl": "https://res.cloudinary.com/dnetsa2kl/image/upload/v1766164907/QrBar_Codes/694589a3abfc224022bb207e/dqxgtqaptu4xpdvizstg.png",
                "mainImage": null,
                "id": "694589a3abfc224022bb207e"
            },
            "metadata": {
                "id": "1766334726467",
                "source": "inventory-service",
                "type": "inventory.product.updated",
                "emittedAt": "2025-12-21T16:32:06.467Z"
            },
            "occurred_at": "2025-12-21T16:32:06.467Z",
            "__v": 0
        },
        {
            "changes": {
                "fields": []
            },
            "severity": "medium",
            "tags": [],
            "_id": "694821062594c7f4a59e6dc8",
            "event_type": "sale.created",
            "source_service": "sales-service",
            "companyId": "2b51c838-8dc2-4c38-bbe1-fbeda67fae1f",
            "entityId": "32",
            "entityType": "sale",
            "payload": {
                "items": [
                    {
                        "total": 14,
                        "category": "Uncategorized",
                        "quantity": 1,
                        "costPrice": 20,
                        "productId": "694589a3abfc224022bb207e",
                        "unitPrice": 14,
                        "productName": "Corrupti amet ut o"
                    }
                ],
                "isDebt": false,
                "saleId": 32,
                "shopId": "239be384-2469-4676-bdf5-3df331064c96",
                "soldBy": "6947f860717fd727f5865712",
                "status": "initiated",
                "traceId": "12e034e5-dbdc-4d38-8e6e-3a18429a11cc",
                "companyId": "2b51c838-8dc2-4c38-bbe1-fbeda67fae1f",
                "createdAt": "2025-12-21T16:32:05.083Z",
                "totalAmount": 14,
                "paymentMethod": "cash",
                "paymentStatus": "pending",
                "hashedCustomerId": null
            },
            "metadata": {
                "id": "1766334726304",
                "source": "sales-service",
                "type": "sale.created",
                "emittedAt": "2025-12-21T16:32:06.304Z"
            },
            "occurred_at": "2025-12-21T16:32:06.304Z",
            "__v": 0
        },
        {
            "changes": {
                "fields": []
            },
            "severity": "medium",
            "tags": [],
            "_id": "694821062594c7f4a59e6dc6",
            "event_type": "invoice.created",
            "source_service": "sales-service",
            "companyId": "2b51c838-8dc2-4c38-bbe1-fbeda67fae1f",
            "entityId": "32",
            "entityType": "invoice",
            "payload": {
                "saleId": 32,
                "status": "ISSUED",
                "traceId": "b5103dc6-db9d-49f3-b043-f423345ff48e",
                "companyId": "2b51c838-8dc2-4c38-bbe1-fbeda67fae1f",
                "createdAt": "2025-12-21T16:32:05.164Z",
                "invoiceId": 32,
                "totalAmount": 14,
                "invoiceNumber": "INV-1766334725046"
            },
            "metadata": {
                "id": "1766334726287",
                "source": "sales-service",
                "type": "invoice.created",
                "emittedAt": "2025-12-21T16:32:06.287Z"
            },
            "occurred_at": "2025-12-21T16:32:06.287Z",
            "__v": 0
        },
        {
            "changes": {
                "fields": []
            },
            "severity": "medium",
            "tags": [],
            "_id": "694819452594c7f4a59e6c2f",
            "event_type": "inventory.stock.updated",
            "source_service": "inventory-service",
            "companyId": "2b51c838-8dc2-4c38-bbe1-fbeda67fae1f",
            "entityType": "inventory",
            "payload": {
                "productId": "694589a3abfc224022bb207e",
                "companyId": "2b51c838-8dc2-4c38-bbe1-fbeda67fae1f",
                "oldQuantity": 252,
                "newQuantity": 250
            },
            "metadata": {
                "id": "1766332741193",
                "source": "inventory-service",
                "type": "inventory.stock.updated",
                "emittedAt": "2025-12-21T15:59:01.193Z"
            },
            "occurred_at": "2025-12-21T15:59:01.193Z",
            "__v": 0
        },
        {
            "changes": {
                "fields": []
            },
            "severity": "medium",
            "tags": [],
            "_id": "694819452594c7f4a59e6c2d",
            "event_type": "inventory.product.updated",
            "source_service": "inventory-service",
            "companyId": "2b51c838-8dc2-4c38-bbe1-fbeda67fae1f",
            "entityId": "694589a3abfc224022bb207e",
            "entityType": "inventory",
            "payload": {
                "seo": {
                    "metaTitle": "Nihil autem aliquip ",
                    "metaDescription": "",
                    "keywords": []
                },
                "sales": {
                    "totalSold": 0,
                    "revenue": 0
                },
                "_id": "694589a3abfc224022bb207e",
                "companyId": "2b51c838-8dc2-4c38-bbe1-fbeda67fae1f",
                "shopId": "239be384-2469-4676-bdf5-3df331064c96",
                "name": "Corrupti amet ut o",
                "description": "Ullam veritatis volu",
                "brand": "Illum maiores deser",
                "manufacturer": "Quis qui omnis harum",
                "tags": [
                    "sed duis nam non mag"
                ],
                "supplierName": "Molestias voluptas f",
                "categoryId": "693bfba22796d0fa08565f12",
                "condition": "used",
                "availability": "out_of_stock",
                "status": "active",
                "visibility": "hidden",
                "featured": true,
                "isFeatured": true,
                "sortOrder": 57,
                "videoUrls": [],
                "pricingId": "694589a3abfc224022bb2084",
                "specsId": null,
                "costPrice": 20,
                "isDeleted": false,
                "deletedAt": null,
                "deletedBy": null,
                "images": [],
                "createdAt": "2025-12-19T17:21:39.956Z",
                "updatedAt": "2025-12-19T17:21:48.985Z",
                "slug": "corrupti-amet-ut-o",
                "sku": "CORRUPTIAM-DLJZB",
                "barcode": "CORRUPTIAM-DLJZB",
                "barcodePayload": "CORRUPTIAM-DLJZB",
                "qrPayload": "CORRUPTIAM-DLJZB",
                "scanId": "SCAN-MJD4ZAMC",
                "asin": "ASIN64899979",
                "upc": "223404307246",
                "__v": 0,
                "qrCode": "CORRUPTIAM-DLJZB",
                "barcodeCloudinaryId": "QrBar_Codes/694589a3abfc224022bb207e/ukdkab5zdbghtzfgm2ax",
                "barcodeUrl": "https://res.cloudinary.com/dnetsa2kl/image/upload/v1766164908/QrBar_Codes/694589a3abfc224022bb207e/ukdkab5zdbghtzfgm2ax.png",
                "qrCloudinaryId": "QrBar_Codes/694589a3abfc224022bb207e/dqxgtqaptu4xpdvizstg",
                "qrCodeUrl": "https://res.cloudinary.com/dnetsa2kl/image/upload/v1766164907/QrBar_Codes/694589a3abfc224022bb207e/dqxgtqaptu4xpdvizstg.png",
                "mainImage": null,
                "id": "694589a3abfc224022bb207e"
            },
            "metadata": {
                "id": "1766332741133",
                "source": "inventory-service",
                "type": "inventory.product.updated",
                "emittedAt": "2025-12-21T15:59:01.133Z"
            },
            "occurred_at": "2025-12-21T15:59:01.133Z",
            "__v": 0
        },
        {
            "changes": {
                "fields": []
            },
            "severity": "medium",
            "tags": [],
            "_id": "694819452594c7f4a59e6c2b",
            "event_type": "inventory.stock.updated",
            "source_service": "inventory-service",
            "companyId": "2b51c838-8dc2-4c38-bbe1-fbeda67fae1f",
            "entityType": "inventory",
            "payload": {
                "productId": "694589a3abfc224022bb207e",
                "companyId": "2b51c838-8dc2-4c38-bbe1-fbeda67fae1f",
                "oldQuantity": 251,
                "newQuantity": 250
            },
            "metadata": {
                "id": "1766332740829",
                "source": "inventory-service",
                "type": "inventory.stock.updated",
                "emittedAt": "2025-12-21T15:59:00.829Z"
            },
            "occurred_at": "2025-12-21T15:59:00.829Z",
            "__v": 0
        },
        {
            "changes": {
                "fields": []
            },
            "severity": "medium",
            "tags": [],
            "_id": "694819442594c7f4a59e6c29",
            "event_type": "inventory.product.updated",
            "source_service": "inventory-service",
            "companyId": "2b51c838-8dc2-4c38-bbe1-fbeda67fae1f",
            "entityId": "694589a3abfc224022bb207e",
            "entityType": "inventory",
            "payload": {
                "seo": {
                    "metaTitle": "Nihil autem aliquip ",
                    "metaDescription": "",
                    "keywords": []
                },
                "sales": {
                    "totalSold": 0,
                    "revenue": 0
                },
                "_id": "694589a3abfc224022bb207e",
                "companyId": "2b51c838-8dc2-4c38-bbe1-fbeda67fae1f",
                "shopId": "239be384-2469-4676-bdf5-3df331064c96",
                "name": "Corrupti amet ut o",
                "description": "Ullam veritatis volu",
                "brand": "Illum maiores deser",
                "manufacturer": "Quis qui omnis harum",
                "tags": [
                    "sed duis nam non mag"
                ],
                "supplierName": "Molestias voluptas f",
                "categoryId": "693bfba22796d0fa08565f12",
                "condition": "used",
                "availability": "out_of_stock",
                "status": "active",
                "visibility": "hidden",
                "featured": true,
                "isFeatured": true,
                "sortOrder": 57,
                "videoUrls": [],
                "pricingId": "694589a3abfc224022bb2084",
                "specsId": null,
                "costPrice": 20,
                "isDeleted": false,
                "deletedAt": null,
                "deletedBy": null,
                "images": [],
                "createdAt": "2025-12-19T17:21:39.956Z",
                "updatedAt": "2025-12-19T17:21:48.985Z",
                "slug": "corrupti-amet-ut-o",
                "sku": "CORRUPTIAM-DLJZB",
                "barcode": "CORRUPTIAM-DLJZB",
                "barcodePayload": "CORRUPTIAM-DLJZB",
                "qrPayload": "CORRUPTIAM-DLJZB",
                "scanId": "SCAN-MJD4ZAMC",
                "asin": "ASIN64899979",
                "upc": "223404307246",
                "__v": 0,
                "qrCode": "CORRUPTIAM-DLJZB",
                "barcodeCloudinaryId": "QrBar_Codes/694589a3abfc224022bb207e/ukdkab5zdbghtzfgm2ax",
                "barcodeUrl": "https://res.cloudinary.com/dnetsa2kl/image/upload/v1766164908/QrBar_Codes/694589a3abfc224022bb207e/ukdkab5zdbghtzfgm2ax.png",
                "qrCloudinaryId": "QrBar_Codes/694589a3abfc224022bb207e/dqxgtqaptu4xpdvizstg",
                "qrCodeUrl": "https://res.cloudinary.com/dnetsa2kl/image/upload/v1766164907/QrBar_Codes/694589a3abfc224022bb207e/dqxgtqaptu4xpdvizstg.png",
                "mainImage": null,
                "id": "694589a3abfc224022bb207e"
            },
            "metadata": {
                "id": "1766332740749",
                "source": "inventory-service",
                "type": "inventory.product.updated",
                "emittedAt": "2025-12-21T15:59:00.749Z"
            },
            "occurred_at": "2025-12-21T15:59:00.749Z",
            "__v": 0
        }
    ],
    "pagination": {
        "total": 223,
        "page": 1,
        "pages": 23
    }
}